R package reviews {dlookr} diagnose, explore and transform your data
…
  variable     n    na  mean    sd se_mean   IQR skewness kurtosis
  <chr>    <int> <int> <dbl> <dbl>   <dbl> <dbl>    <dbl>    <dbl>
1 carat    53940     0  5.73  1.12 0.00483  1.83    0.379   -0.618
2 depth    53940     0  5.73  1.12 0.00483  1.83    0.379   -0.618
3 table    53940     0  5.73  1.12 0.00483  1.83    0.379   -0.618
4 price    53940     0  5.73  1.12 0.00483  1.83    0.379   -0.618
5 x        53940     0  5.73  1.12 0.00483  1.83    0.379   -0.618
6 y        53940     0  5.73  1.12 0.00483  1.83    0.379   -0.618
7 z        53940     0  5.73  1.12 0.00483  1.83    0.379   -0.618
# … with 17 more variables: p00 <dbl>, p01 <dbl>, p05 <dbl>,
#   p10 <dbl>, p20 <dbl>, p25 <dbl>, p30 <dbl>, p40 <dbl>, p50 <dbl>,
#   p60 <dbl>, p70 <dbl>, p75 <dbl>, p80 <dbl>, p90 <dbl>, p95 <dbl>,
#   p99 <dbl>, p100 <dbl>

# A tibble: 30 x 3
   var1    var2    coef_corr
   <fct>   <fct>       <dbl>
 1 Solar.R Ozone      0.348 
 2 Wind    Ozone     -0.602 
 3 Temp    Ozone      0.698 
 4 Month   Ozone      0.165 
 5 Day     Ozone     -0.0132
 6 Ozone   Solar.R    0.348 
 7 Wind    Solar.R   -0.0568
 8 Temp    Solar.R    0.276 
 9 Month   Solar.R   -0.0753
10 Day     Solar.R   -0.150 
# … with 20 more rows
…
