yuzaR-Blog: R package reviews {DataExplorer} explore your data
…
Feature Engineering

To make quick updates to your data:

## Group bottom 20% `clarity` by frequency
group_category(diamonds, feature = "clarity", threshold = 0.2, update = TRUE)

# A tibble: 53,940 x 10
   carat cut       color clarity depth table price     x     y     z
   <dbl> <ord>     <ord> <chr>   <dbl> <dbl> <int> <dbl> <dbl> <dbl>
 1 0.23  Ideal     E     SI2      61.5    55   326  3.95  3.98  2.43
 2 0.21  Premium   E     SI1      59.8    61   326  3.89  3.84  2.31
 3 0.23  Good      E     VS1      56.9    65   327  4.05  4.07  2.31
 4 0.290 Premium   I     VS2      62.4    58   334  4.2   4.23  2.63
 5 0.31  Good      J     SI2      63.3    58   335  4.34  4.35  2.75
 6 0.24  Very Good J     OTHER    62.8    57   336  3.94  3.96  2.48
 7 0.24  Very Good I     OTHER    62.3    57   336  3.95  3.98  2.47
 8 0.26  Very Good H     SI1      61.9    55   337  4.07  4.11  2.53
 9 0.22  Fair      E     VS2      65.1    61   337  3.87  3.78  2.49
10 0.23  Very Good H     VS1      59.4    61   338  4     4.05  2.39
#  with 53,930 more rows

## Group bottom 20% `clarity` by `price`
group_category(diamonds, feature = "clarity", threshold = 0.2, measure = "price", update = TRUE)

# A tibble: 53,940 x 10
   carat cut       color clarity depth table price     x     y     z
   <dbl> <ord>     <ord> <chr>   <dbl> <dbl> <int> <dbl> <dbl> <dbl>
 1 0.23  Ideal     E     SI2      61.5    55   326  3.95  3.98  2.43
 2 0.21  Premium   E     SI1      59.8    61   326  3.89  3.84  2.31
 3 0.23  Good      E     OTHER    56.9    65   327  4.05  4.07  2.31
 4 0.290 Premium   I     VS2      62.4    58   334  4.2   4.23  2.63
 5 0.31  Good      J     SI2      63.3    58   335  4.34  4.35  2.75
 6 0.24  Very Good J     OTHER    62.8    57   336  3.94  3.96  2.48
 7 0.24  Very Good I     OTHER    62.3    57   336  3.95  3.98  2.47
 8 0.26  Very Good H     SI1      61.9    55   337  4.07  4.11  2.53
 9 0.22  Fair      E     VS2      65.1    61   337  3.87  3.78  2.49
10 0.23  Very Good H     OTHER    59.4    61   338  4     4.05  2.39
#  with 53,930 more rows

## Dummify diamonds dataset
dummify(diamonds)

# A tibble: 53,940 x 27
   carat depth table price     x     y     z cut_Fair cut_Good
   <dbl> <dbl> <dbl> <int> <dbl> <dbl> <dbl>    <int>    <int>
 1 0.23   61.5    55   326  3.95  3.98  2.43        0        0
 2 0.21   59.8    61   326  3.89  3.84  2.31        0        0
 3 0.23   56.9    65   327  4.05  4.07  2.31        0        1
 4 0.290  62.4    58   334  4.2   4.23  2.63        0        0
 5 0.31   63.3    58   335  4.34  4.35  2.75        0        1
 6 0.24   62.8    57   336  3.94  3.96  2.48        0        0
 7 0.24   62.3    57   336  3.95  3.98  2.47        0        0
 8 0.26   61.9    55   337  4.07  4.11  2.53        0        0
 9 0.22   65.1    61   337  3.87  3.78  2.49        1        0
10 0.23   59.4    61   338  4     4.05  2.39        0        0
#  with 53,930 more rows, and 18 more variables: cut_Ideal <int>,
#   cut_Premium <int>, cut_Very.Good <int>, color_D <int>,
#   color_E <int>, color_F <int>, color_G <int>, color_H <int>,
#   color_I <int>, color_J <int>, clarity_I1 <int>, clarity_IF <int>,
#   clarity_SI1 <int>, clarity_SI2 <int>, clarity_VS1 <int>,
#   clarity_VS2 <int>, clarity_VVS1 <int>, clarity_VVS2 <int>

dummify(diamonds, select = "cut")

# A tibble: 53,940 x 14
   carat depth table price     x     y     z color clarity cut_Fair
   <dbl> <dbl> <dbl> <int> <dbl> <dbl> <dbl> <ord> <ord>      <int>
 1 0.23   61.5    55   326  3.95  3.98  2.43 E     SI2            0
 2 0.21   59.8    61   326  3.89  3.84  2.31 E     SI1            0
 3 0.23   56.9    65   327  4.05  4.07  2.31 E     VS1            0
 4 0.290  62.4    58   334  4.2   4.23  2.63 I     VS2            0
 5 0.31   63.3    58   335  4.34  4.35  2.75 J     SI2            0
 6 0.24   62.8    57   336  3.94  3.96  2.48 J     VVS2           0
 7 0.24   62.3    57   336  3.95  3.98  2.47 I     VVS1           0
 8 0.26   61.9    55   337  4.07  4.11  2.53 H     SI1            0
 9 0.22   65.1    61   337  3.87  3.78  2.49 E     VS2            1
10 0.23   59.4    61   338  4     4.05  2.39 H     VS1            0
#  with 53,930 more rows, and 4 more variables: cut_Good <int>,
#   cut_Ideal <int>, cut_Premium <int>, cut_Very.Good <int>
…
drop_columns(diamonds, "clarity")

# A tibble: 53,940 x 9
   carat cut       color depth table price     x     y     z
   <dbl> <ord>     <ord> <dbl> <dbl> <int> <dbl> <dbl> <dbl>
 1 0.23  Ideal     E      61.5    55   326  3.95  3.98  2.43
 2 0.21  Premium   E      59.8    61   326  3.89  3.84  2.31
 3 0.23  Good      E      56.9    65   327  4.05  4.07  2.31
 4 0.290 Premium   I      62.4    58   334  4.2   4.23  2.63
 5 0.31  Good      J      63.3    58   335  4.34  4.35  2.75
 6 0.24  Very Good J      62.8    57   336  3.94  3.96  2.48
 7 0.24  Very Good I      62.3    57   336  3.95  3.98  2.47
 8 0.26  Very Good H      61.9    55   337  4.07  4.11  2.53
 9 0.22  Fair      E      65.1    61   337  3.87  3.78  2.49
10 0.23  Very Good H      59.4    61   338  4     4.05  2.39
#  with 53,930 more rows
…
