4 Reasons Non-Parametric Bootstrapped Regression (with tidymodels) is Better thаn Ordinary Regression
…
4 steps to compute bootstrapped regression

There are only 4 steps to conduct and visualize bootstrapped regression.

1. Bootstrap the data with resampling

First, we bootstrap the data, which simply means we take 1000 samples from our 100 data rows. Every of those 1000 samples is of the same size as the original data set, namely 100 rows, but is made using replacements, which results into multiple replicates of some of the original rows of the data. Replacements are necessary, because we would otherwise simply reproduce the original sample. (The assessment set contains the rows of the original data that were not included in the bootstrap sample.) In order to distinguish bootstrapped samples from the original sample let’s call our bootstrapped samples - splits.

set.seed(123)
# 1000 samples are OK, but with 2000-10000 you are save!
boot_data <- bootstraps(salary, times = 1000) 
boot_data

# Bootstrap sampling 
# A tibble: 1,000 × 2
   splits           id           
   <list>           <chr>        
 1 <split [100/41]> Bootstrap0001
 2 <split [100/38]> Bootstrap0002
 3 <split [100/42]> Bootstrap0003
 4 <split [100/40]> Bootstrap0004
 5 <split [100/30]> Bootstrap0005
 6 <split [100/30]> Bootstrap0006
 7 <split [100/36]> Bootstrap0007
 8 <split [100/35]> Bootstrap0008
 9 <split [100/32]> Bootstrap0009
10 <split [100/36]> Bootstrap0010
# … with 990 more rows
…
<Analysis/Assess/Total>
<100/41/100>

2. Produce 1000 models

Then we fit a linear model to every split using the first map() function and tidy up model coefficients with the second map() function. Let’s use “0 +” in the model formula to remove the Intercept, because we are interested in estimates of the salary and not the slope of change from that Intercept.

boot_models <- boot_data %>% 
  mutate(model = map(splits, ~lm(wage ~ 0 + education, data = .)), 
         coefs = map(model, tidy) ) # optional "conf.int = TRUE"

boot_models

# Bootstrap sampling 
# A tibble: 1,000 × 4
   splits           id            model  coefs           
   <list>           <chr>         <list> <list>          
 1 <split [100/41]> Bootstrap0001 <lm>   <tibble [5 × 5]>
 2 <split [100/38]> Bootstrap0002 <lm>   <tibble [5 × 5]>
 3 <split [100/42]> Bootstrap0003 <lm>   <tibble [5 × 5]>
 4 <split [100/40]> Bootstrap0004 <lm>   <tibble [5 × 5]>
 5 <split [100/30]> Bootstrap0005 <lm>   <tibble [5 × 5]>
 6 <split [100/30]> Bootstrap0006 <lm>   <tibble [5 × 5]>
 7 <split [100/36]> Bootstrap0007 <lm>   <tibble [5 × 5]>
 8 <split [100/35]> Bootstrap0008 <lm>   <tibble [5 × 5]>
 9 <split [100/32]> Bootstrap0009 <lm>   <tibble [5 × 5]>
10 <split [100/36]> Bootstrap0010 <lm>   <tibble [5 × 5]>
# … with 990 more rows

3. Plot estimates distribution of 1000 estimates

boot_coefs <- boot_models %>%
  unnest(coefs) %>% 
  select(term, estimate)

boot_coefs

# A tibble: 5,000 × 2
   term                        estimate
   <chr>                          <dbl>
 1 education1. < HS Grad           85.5
 2 education2. HS Grad             87.3
 3 education3. Some College       107. 
 4 education4. College Grad       127. 
 5 education5. Advanced Degree    174. 
 6 education1. < HS Grad           85.0
 7 education2. HS Grad             95.1
 8 education3. Some College       109. 
 9 education4. College Grad       150. 
10 education5. Advanced Degree    149. 
# … with 4,990 more rows
…
1000 models with 100 fitted values each result in 100.000 fitted values, which we see when we unnest them for plotting, and visualize as 1000 lines on the plot

# produce 1000 resamples
set.seed(123)
boot_data <- bootstraps(salary, times = 1000) 

# bootstrap new regressions and unnest all fits
boot_models <- boot_data %>% 
  mutate(model     = map(splits, ~lm(wage ~ age, data = .)), 
         augmented = map(model, augment) )

boot_models

# Bootstrap sampling 
# A tibble: 1,000 × 4
   splits           id            model  augmented         
   <list>           <chr>         <list> <list>            
 1 <split [100/41]> Bootstrap0001 <lm>   <tibble [100 × 9]>
 2 <split [100/38]> Bootstrap0002 <lm>   <tibble [100 × 9]>
 3 <split [100/42]> Bootstrap0003 <lm>   <tibble [100 × 9]>
 4 <split [100/40]> Bootstrap0004 <lm>   <tibble [100 × 9]>
 5 <split [100/30]> Bootstrap0005 <lm>   <tibble [100 × 9]>
 6 <split [100/30]> Bootstrap0006 <lm>   <tibble [100 × 9]>
 7 <split [100/36]> Bootstrap0007 <lm>   <tibble [100 × 9]>
 8 <split [100/35]> Bootstrap0008 <lm>   <tibble [100 × 9]>
 9 <split [100/32]> Bootstrap0009 <lm>   <tibble [100 × 9]>
10 <split [100/36]> Bootstrap0010 <lm>   <tibble [100 × 9]>
# … with 990 more rows

boot_aug <- boot_models %>% 
  unnest(augmented) %>% 
  select(-splits, -model)

boot_aug

# A tibble: 100,000 × 10
   id         .rown…¹  wage   age .fitted .resid   .hat .sigma .cooksd
   <chr>      <chr>   <dbl> <int>   <dbl>  <dbl>  <dbl>  <dbl>   <dbl>
 1 Bootstrap… 31       61.2    25    95.7 -34.5  0.0256   47.7 7.09e-3
 2 Bootstrap… 79      112.     48   126.  -14.6  0.0149   47.8 7.20e-4
 3 Bootstrap… 51      110.     40   116.   -5.83 0.0100   47.8 7.66e-5
 4 Bootstrap… 14       79.9    52   132.  -51.8  0.0207   47.5 1.28e-2
 5 Bootstrap… 67       82.7    40   116.  -33.0  0.0100   47.7 2.45e-3
 6 Bootstrap… 42       95.2    30   102.   -7.12 0.0168   47.8 1.95e-4
 7 Bootstrap… 50       99.7    25    95.7   3.99 0.0256   47.8 9.47e-5
 8 Bootstrap… 43       70.5    24    94.4 -23.9  0.0278   47.8 3.70e-3
 9 Bootstrap… 14.1     79.9    52   132.  -51.8  0.0207   47.5 1.28e-2
10 Bootstrap… 25      121.     47   125.   -3.55 0.0138   47.8 3.94e-5
# … with 99,990 more rows, 1 more variable: .std.resid <dbl>, and
#   abbreviated variable name ¹​.rownames
…
