R demo| Many Models with Nested (Grouped) Data Easily
…
And lastly,

we could easily unnest() our predictions in a separate data-frame, then

plot() original data and linear models which are already build into the classic ggplot() commands, by intentionally living same blue color for different insurances and making them a little bigger, and finally

plot our predictions on top of them with different colors in order to see whether our predictions worked well, and voilà, our predictions perfectly fitted the blue lines!

unnested_preds <- 
  nested_models %>% 
  unnest(preds)

unnested_preds 

# A tibble: 3,000 × 14
# Groups:   education, health_ins [10]
   education    health…¹ data     models coefs    quality   wage   age
   <fct>        <fct>    <list>   <list> <list>   <list>   <dbl> <int>
 1 1. < HS Grad 2. No    <tibble> <lm>   <tibble> <tibble>  75.0    18
 2 1. < HS Grad 2. No    <tibble> <lm>   <tibble> <tibble>  66.2    27
 3 1. < HS Grad 2. No    <tibble> <lm>   <tibble> <tibble>  45.3    43
 4 1. < HS Grad 2. No    <tibble> <lm>   <tibble> <tibble>  66.2    25
 5 1. < HS Grad 2. No    <tibble> <lm>   <tibble> <tibble>  88.0    44
 6 1. < HS Grad 2. No    <tibble> <lm>   <tibble> <tibble>  51.5    24
 7 1. < HS Grad 2. No    <tibble> <lm>   <tibble> <tibble>  68.1    53
 8 1. < HS Grad 2. No    <tibble> <lm>   <tibble> <tibble>  88.0    41
 9 1. < HS Grad 2. No    <tibble> <lm>   <tibble> <tibble>  86.7    43
10 1. < HS Grad 2. No    <tibble> <lm>   <tibble> <tibble>  59.1    35
# … with 2,990 more rows, 6 more variables: .fitted <dbl>,
#   .resid <dbl>, .hat <dbl>, .sigma <dbl>, .cooksd <dbl>,
#   .std.resid <dbl>, and abbreviated variable name ¹​health_ins
…
