{dplyr} on steroids: 20+ Expert Data Wrangling Techniques!
…
Now we see our missing categories which we discovered after using distinct above, namely: there not a single manual gearbox car (am = 1) having three gears and there are no cars in our dataset with automatic transmission (am = 0) having 5 gears. Hmm… we know both categories exist, but we don’t have them in our sample, meaning - our sample is not complete.

But wouldn’t it be nice to have these missing combinations in out dataset (even without the data, all NAs)?

Well, yes! Why?

Because we then could simply extrapolate our dataset to those missing cases by estimating their probable values.

Estimate? Probable? Sounds wage, isn’t it? Yes. But even a bad estimation (a model) is often much more useful than an excellent “not-knowing”. Thus, it’s worth to complete our dataset to see what we miss - meaning to see the new opportunities. And you think, that this all might be unnecessary since you can look it all up yourself, think about how many combinations you’d need to check in the case where you have 100 categorical variables and each of them has several categories. To emphasize this point I’ll take only three categorical variables from mtcars dataset with only 32 observations and show in the code below that 8 combinations our of 26 are missing:

mtcars %>% complete(cyl, am, gear) %>% arrange(desc(is.na(mpg)))

# A tibble: 40 × 11
     cyl    am  gear   mpg  disp    hp  drat    wt  qsec    vs  carb
   <dbl> <dbl> <dbl> <dbl> <dbl> <dbl> <dbl> <dbl> <dbl> <dbl> <dbl>
 1     4     0     5  NA     NA     NA NA    NA     NA      NA    NA
 2     4     1     3  NA     NA     NA NA    NA     NA      NA    NA
 3     6     0     5  NA     NA     NA NA    NA     NA      NA    NA
 4     6     1     3  NA     NA     NA NA    NA     NA      NA    NA
 5     8     0     4  NA     NA     NA NA    NA     NA      NA    NA
 6     8     0     5  NA     NA     NA NA    NA     NA      NA    NA
 7     8     1     3  NA     NA     NA NA    NA     NA      NA    NA
 8     8     1     4  NA     NA     NA NA    NA     NA      NA    NA
 9     4     0     3  21.5  120.    97  3.7   2.46  20.0     1     1
10     4     0     4  24.4  147.    62  3.69  3.19  20       1     2
# … with 30 more rows

Now we see what we miss in our data, for instance an automatic gearbox car with 5 gears and 4 cylinders, or a manual gearbox car with 3 gears and 4 cylinders.

And the very next step would be to fill it up with some useful value. What is useful? Sometimes average. Sometimes median or something else. Here, for the sake of an example, let’s fill the first three columns (mpg, disp and hp) with their averages:

mtcars %>% 
  complete(cyl, am, gear, fill = list(mpg = mean(mtcars$mpg), 
                                               disp = mean(mtcars$disp), 
                                               hp = mean(mtcars$hp))) %>% 
  arrange(desc(is.na(wt)))

# A tibble: 40 × 11
     cyl    am  gear   mpg  disp    hp  drat    wt  qsec    vs  carb
   <dbl> <dbl> <dbl> <dbl> <dbl> <dbl> <dbl> <dbl> <dbl> <dbl> <dbl>
 1     4     0     5  20.1  231.  147. NA    NA     NA      NA    NA
 2     4     1     3  20.1  231.  147. NA    NA     NA      NA    NA
 3     6     0     5  20.1  231.  147. NA    NA     NA      NA    NA
 4     6     1     3  20.1  231.  147. NA    NA     NA      NA    NA
 5     8     0     4  20.1  231.  147. NA    NA     NA      NA    NA
 6     8     0     5  20.1  231.  147. NA    NA     NA      NA    NA
 7     8     1     3  20.1  231.  147. NA    NA     NA      NA    NA
 8     8     1     4  20.1  231.  147. NA    NA     NA      NA    NA
 9     4     0     3  21.5  120.   97   3.7   2.46  20.0     1     1
10     4     0     4  24.4  147.   62   3.69  3.19  20       1     2
# … with 30 more rows

Well, I don’t know if it’s better then nothing… Wait, you can also fill it with the last value the variable had before hitting the nest NA:

mtcars %>% complete(cyl, am, gear) %>% fill(mpg, disp, hp) %>% 
  arrange(desc(is.na(wt)))

# A tibble: 40 × 11
     cyl    am  gear   mpg  disp    hp  drat    wt  qsec    vs  carb
   <dbl> <dbl> <dbl> <dbl> <dbl> <dbl> <dbl> <dbl> <dbl> <dbl> <dbl>
 1     4     0     5  22.8  141.    95 NA    NA     NA      NA    NA
 2     4     1     3  22.8  141.    95 NA    NA     NA      NA    NA
 3     6     0     5  17.8  168.   123 NA    NA     NA      NA    NA
 4     6     1     3  17.8  168.   123 NA    NA     NA      NA    NA
 5     8     0     4  19.2  400    175 NA    NA     NA      NA    NA
 6     8     0     5  19.2  400    175 NA    NA     NA      NA    NA
 7     8     1     3  19.2  400    175 NA    NA     NA      NA    NA
 8     8     1     4  19.2  400    175 NA    NA     NA      NA    NA
 9     4     0     3  21.5  120.    97  3.7   2.46  20.0     1     1
10     4     0     4  24.4  147.    62  3.69  3.19  20       1     2
# … with 30 more rows
…
Bonus peace of code

Have a look at a messy dataset who, think about what would you do with it and then check out the code below which is mostly borrowed from the referenced book.

who

# A tibble: 7,240 × 60
   country   iso2  iso3   year new_s…¹ new_s…² new_s…³ new_s…⁴ new_s…⁵
   <chr>     <chr> <chr> <dbl>   <dbl>   <dbl>   <dbl>   <dbl>   <dbl>
 1 Afghanis… AF    AFG    1980      NA      NA      NA      NA      NA
 2 Afghanis… AF    AFG    1981      NA      NA      NA      NA      NA
 3 Afghanis… AF    AFG    1982      NA      NA      NA      NA      NA
 4 Afghanis… AF    AFG    1983      NA      NA      NA      NA      NA
 5 Afghanis… AF    AFG    1984      NA      NA      NA      NA      NA
 6 Afghanis… AF    AFG    1985      NA      NA      NA      NA      NA
 7 Afghanis… AF    AFG    1986      NA      NA      NA      NA      NA
 8 Afghanis… AF    AFG    1987      NA      NA      NA      NA      NA
 9 Afghanis… AF    AFG    1988      NA      NA      NA      NA      NA
10 Afghanis… AF    AFG    1989      NA      NA      NA      NA      NA
# … with 7,230 more rows, 51 more variables: new_sp_m5564 <dbl>,
#   new_sp_m65 <dbl>, new_sp_f014 <dbl>, new_sp_f1524 <dbl>,
#   new_sp_f2534 <dbl>, new_sp_f3544 <dbl>, new_sp_f4554 <dbl>,
#   new_sp_f5564 <dbl>, new_sp_f65 <dbl>, new_sn_m014 <dbl>,
#   new_sn_m1524 <dbl>, new_sn_m2534 <dbl>, new_sn_m3544 <dbl>,
#   new_sn_m4554 <dbl>, new_sn_m5564 <dbl>, new_sn_m65 <dbl>,
#   new_sn_f014 <dbl>, new_sn_f1524 <dbl>, new_sn_f2534 <dbl>, …
…
  mutate(name = stringr::str_replace(name, "newrel", "new_rel")) %>% 
  separate(name, into = c("new", "type", "sexage")) %>% 
  separate("sexage", into = c("sex", "age"), sep = 1) %>% 
  mutate(age_2 = case_when(
    age == "014"  ~ "0 – 14 years old",
    age == "1524" ~ "15 - 24 years old",
    age == "2534" ~ "25 - 34 years old",
    age == "3544" ~ "35 - 44 years old",
    age == "4554" ~ "45 - 54 years old",
    age == "5564" ~ "55 - 64 years old",
    age == "65"   ~ "65 or older",
    TRUE          ~ "bla"
  ))

# A tibble: 76,046 × 8
   country      year new   type  sex   age   value age_2            
   <chr>       <dbl> <chr> <chr> <chr> <chr> <dbl> <chr>            
 1 Afghanistan  1997 new   sp    m     014       0 0 – 14 years old 
 2 Afghanistan  1997 new   sp    m     1524     10 15 - 24 years old
 3 Afghanistan  1997 new   sp    m     2534      6 25 - 34 years old
 4 Afghanistan  1997 new   sp    m     3544      3 35 - 44 years old
 5 Afghanistan  1997 new   sp    m     4554      5 45 - 54 years old
 6 Afghanistan  1997 new   sp    m     5564      2 55 - 64 years old
 7 Afghanistan  1997 new   sp    m     65        0 65 or older      
 8 Afghanistan  1997 new   sp    f     014       5 0 – 14 years old 
 9 Afghanistan  1997 new   sp    f     1524     38 15 - 24 years old
10 Afghanistan  1997 new   sp    f     2534     36 25 - 34 years old
# … with 76,036 more rows
…
