R package reviews {rsample} Effective Resampling for Machine Learning!
…
Picture source - Tidymodels book: https://www.tmwr.org/resampling.html

workflow() for classification problem with random forest

And since we just used regression model, let’s try out repeated cross-validation on a classification model. For that we’ll use a random forest algorithm with 1000 trees from the {ranger} package and classify car origins with the help of mpg and horsepower. (horse noise to wake up the viewers) The accuracy of 75% and the Area-Under-the-Curve (AUC_ROC) of 80% for such a small data set (of only 313 observations) is pretty good!

# get repeated cross-validation object
set.seed(10)
folds <- vfold_cv(auto_train, strata = origin, repeats = 10)
folds

#  10-fold cross-validation repeated 10 times using stratification 
# A tibble: 100 × 3
   splits           id       id2   
   <list>           <chr>    <chr> 
 1 <split [278/32]> Repeat01 Fold01
 2 <split [278/32]> Repeat01 Fold02
 3 <split [278/32]> Repeat01 Fold03
 4 <split [278/32]> Repeat01 Fold04
 5 <split [279/31]> Repeat01 Fold05
 6 <split [279/31]> Repeat01 Fold06
 7 <split [279/31]> Repeat01 Fold07
 8 <split [280/30]> Repeat01 Fold08
 9 <split [280/30]> Repeat01 Fold09
10 <split [281/29]> Repeat01 Fold10
# … with 90 more rows
…
