Deep Exploratory Data Analysis (EDA) in R
…
Day
0.953
0.000
153

Moreover, via the collaboration with {dplyr} package and its group_by() function we can conduct around 2000 normality tests in seconds and only few lines of code:

diamonds %>%
  group_by(cut, color, clarity) %>%
  normality()

# A tibble: 1,932 x 7
   variable cut   color clarity statistic     p_value sample
   <chr>    <ord> <ord> <ord>       <dbl>       <dbl>  <dbl>
 1 carat    Fair  D     I1          0.888 0.373            4
 2 carat    Fair  D     SI2         0.867 0.0000183       56
 3 carat    Fair  D     SI1         0.849 0.00000379      58
 4 carat    Fair  D     VS2         0.931 0.0920          25
 5 carat    Fair  D     VS1         0.973 0.893            5
 6 carat    Fair  D     VVS2        0.871 0.127            9
 7 carat    Fair  D     VVS1        0.931 0.493            3
 8 carat    Fair  D     IF          0.990 0.806            3
 9 carat    Fair  E     I1          0.941 0.596            9
10 carat    Fair  E     SI2         0.867 0.000000807     78
#  with 1,922 more rows
…
